…
### When things go wrong

``` r
# Remove the x column from diamonds
diamonds_sub$x <- NULL

# Create variable x with value 1
x <- 1

# Use big_x() to find rows in diamonds_sub where x > 7
big_x(diamonds_sub, x > 7)
```

    ## # A tibble: 5,000 x 9
    ##    carat       cut color clarity depth table price     y     z
    ##    <dbl>     <ord> <ord>   <ord> <dbl> <dbl> <int> <dbl> <dbl>
    ##  1  0.23     Ideal     E     SI2  61.5    55   326  3.98  2.43
    ##  2  0.21   Premium     E     SI1  59.8    61   326  3.84  2.31
    ##  3  0.23      Good     E     VS1  56.9    65   327  4.07  2.31
    ##  4  0.29   Premium     I     VS2  62.4    58   334  4.23  2.63
    ##  5  0.31      Good     J     SI2  63.3    58   335  4.35  2.75
    ##  6  0.24 Very Good     J    VVS2  62.8    57   336  3.96  2.48
    ##  7  0.24 Very Good     I    VVS1  62.3    57   336  3.98  2.47
    ##  8  0.26 Very Good     H     SI1  61.9    55   337  4.11  2.53
    ##  9  0.22      Fair     E     VS2  65.1    61   337  3.78  2.49
    ## 10  0.23 Very Good     H     VS1  59.4    61   338  4.05  2.39
    ## # ... with 4,990 more rows
…
